// Choreo version 1
actor "heavy"
{
  channel "audio"
  {
    event speak "Heavy.PositiveVocalization01"
    {
      time 0.000000 2.072381
      param "Heavy.PositiveVocalization01"
      fixedlength
      cctype "cc_master"
      cctoken ""
    }
  }
  channel "emotion"
  {
    event expression "upperHappy2"
    {
      time 0.006667 2.074564
      param "player\heavy\emotion\emotion"
      param2 "upperHappy2"
      event_ramp
      {
        0.2576 0.7025 "curve_easein_to_curve_easeout"
        1.0333 0.6860 "curve_easein_to_curve_easeout"
        1.1636 0.4628
        1.3333 0.9091
        1.5212 0.7603
        1.7182 0.7769 "curve_easein_to_curve_easeout"
        1.8242 0.7769 "curve_easein_to_curve_easeout"
      }
    }
    event expression "happy1"
    {
      time 1.885875 3.463334
      param "player\heavy\emotion\emotion"
      param2 "happy1"
      event_ramp
      {
        0.2515 0.7273 "curve_easein_to_curve_easeout"
        0.7394 0.7273 "curve_easein_to_curve_easeout"
      }
    }
  }
}

scalesettings
{
  "CChoreoView" "200"
  "ExpressionTool" "100"
  "RampTool" "66"
  "GestureTool" "100"
  "SceneRampTool" "100"
}
fps 60
snap off
ignorePhonemes off
